Anual;World_GdpRea_AnnGrw_Prc_ImfWeo
1980;1.847
1981;2.242
1982;0.708
1983;2.819
1984;4.898
1985;3.944
1986;3.464
1987;3.749
1988;4.476
1989;3.843
1990;3.193
1991;2.208
1992;2.214
1993;2.078
1994;3.375
1995;3.262
1996;3.743
1997;4.24
1998;2.558
1999;3.501
2000;4.774
2001;2.288
2002;2.892
2003;3.623
2004;4.933
2005;4.551
2006;5.206
2007;5.339
2008;2.834
2009;-0.577
2010;4.766
2011;4.22
2012;4.541
2013;4.586
2014;4.624
2015;4.624
